[
    {
        "name": "Tatoos"
    },
    {
        "name": "Mirrorshades"
    },
    {
        "name": "Ritual Scars"
    },
    {
        "name": "Spiked gloves"
    },
    {
        "name": "Nose Rings"
    },
    {
        "name": "Earrings"
    },
    {
        "name": "Long fingernails"
    },
    {
        "name": "Spike heeled boots"
    },
    {
        "name": "Weir Contact Lenses"
    },
    {
        "name": "Fingerless gloves"
    }
]
