[
    {
        "name": "Верховая езда",
        "statsSw": "findOneById 1"
    },
    {
        "name": "Взлом",
        "statsSw": "findOneById 1"
    },
    {
        "name": "Вождение",
        "statsSw": "findOneById 1"
    },
    {
        "name": "Драка",
        "statsSw": "findOneById 1"
    },
    {
        "name": "Маскировка",
        "statsSw": "findOneById 1"
    },
    {
        "name": "Метание",
        "statsSw": "findOneById 1"
    },
    {
        "name": "Пилотирование",
        "statsSw": "findOneById 1"
    },
    {
        "name": "Плавание",
        "statsSw": "findOneById 1"
    },
    {
        "name": "Стрельба",
        "statsSw": "findOneById 1"
    },
    {
        "name": "Судовождение",
        "statsSw": "findOneById 1"
    },
    {
        "name": "Ремесло",
        "statsSw": "findOneById 1"
    },
    {
        "name": "Азартные игры",
        "statsSw": "findOneById 2"
    },
    {
        "name": "Анализ текста",
        "statsSw": "findOneById 2"
    },
    {
        "name": "Внимание",
        "statsSw": "findOneById 2"
    },
    {
        "name": "Выживание",
        "statsSw": "findOneById 2"
    },
    {
        "name": "Выслеживание",
        "statsSw": "findOneById 2"
    },
    {
        "name": "Лечение",
        "statsSw": "findOneById 2"
    },
    {
        "name": "Провокация",
        "statsSw": "findOneById 2"
    },
    {
        "name": "Ремонт",
        "statsSw": "findOneById 2"
    },
    {
        "name": "Уличное чутьё",
        "statsSw": "findOneById 2"
    },
    {
        "name": "Знание",
        "statsSw": "findOneById 2"
    },
    {
        "name": "Запугивание",
        "statsSw": "findOneById 3"
    },
    {
        "name": "Убеждение",
        "statsSw": "findOneById 3"
    },
    {
        "name": "Искусство",
        "statsSw": "findOneById 3"
    },
    {
        "name": "Лазание",
        "statsSw": "findOneById 4"
    }
]
