[
    {
        "name": "Anglo-American (English)"
    },
    {
        "name": "African (Bantu, Fante, Kongo, Ashanti, Zulu, Swahili)"
    },
    {
        "name": "Japanese/Korean (Japanese or Korean)"
    },
    {
        "name": "Central European/Soviet (Bulgarian, Russian, Czech, Polish, Ukranian, Slovak)"
    },
    {
        "name": "Pacific Islander (Microneasian, Tagalog, Polynesian, Malayan, Sudanese, Indonesian, Hawaiian )"
    },
    {
        "name": "Chinese/Southeast Asian (Burmese, Cantonese, Mandarin, Thai, Tibetan, Vietnamese)"
    },
    {
        "name": "Black American (English, Blackfolk)"
    },
    {
        "name": "Hispanic American (Spanish, English)"
    },
    {
        "name": "Central/South American (Spanish, Portuguese)"
    },
    {
        "name": "European (French, German, English, Spanish, Italian, Greek, Danish, Dutch, Norwegian, Swedish, Finnish)"
    }
]
